/*2013120411320352*/
update d_stock set locationcode='2267003002' where stockno=139748490;
update d_stock set locationcode='2311003002' where stockno=139857750;
update d_stock set locationcode='2395002003' where stockno=139748499;

update d_reception_goods set locationcode='2267003002',picked_kind='0',operatedate=null,operatetime=null,operatestaffcode='999999' where stockno=139748490;
update d_reception_goods set locationcode='2311003002',picked_kind='0',operatedate=null,operatetime=null,operatestaffcode='999999' where stockno=139857750;
update d_reception_goods set locationcode='2395002003',picked_kind='0',operatedate=null,operatetime=null,operatestaffcode='999999' where stockno=139748499;

update d_goods_stock set locationcode='2267003002' where instorecode='0011414924' and newused_kind='0' and stockdate='20131209' and qty='1' and RESERVE_QTY='1';
update d_goods_stock set locationcode='2311003002' where instorecode='0015038512' and newused_kind='0' and stockdate='20131210' and qty='1' and RESERVE_QTY='1';
update d_goods_stock set locationcode='2395002003' where instorecode='0015099094' and newused_kind='0' and stockdate='20131209' and qty='1' and RESERVE_QTY='1';
commit;
exit;
