/*2013120411530583*/
update d_stock set locationcode='2097004003' where stockno=139857745;
update d_stock set locationcode='2567002001' where stockno=152940993;
update d_stock set locationcode='2627006001' where stockno=139748507;

update d_reception_goods set locationcode='2097004003',picked_kind='0',operatedate=null,operatetime=null,operatestaffcode='999999' where stockno=139857745;
update d_reception_goods set locationcode='2567002001',picked_kind='0',operatedate=null,operatetime=null,operatestaffcode='999999' where stockno=152940993;
update d_reception_goods set locationcode='2627006001',picked_kind='0',operatedate=null,operatetime=null,operatestaffcode='999999' where stockno=139748507;

update d_goods_stock set locationcode='2097004003' where instorecode='0016044233' and newused_kind='0' and stockdate='20131210' and qty='1' and RESERVE_QTY='1';
update d_goods_stock set locationcode='2567002001' where instorecode='0016186423' and newused_kind='0' and stockdate='20131210' and qty='1' and RESERVE_QTY='1';
update d_goods_stock set locationcode='2627006001' where instorecode='0016246632' and newused_kind='0' and stockdate='20131209' and qty='1' and RESERVE_QTY='1';

commit;
exit;
