R301501150003	hiro2-hal-syuj@lime.plala.or.jp	_Gü	2/3
R301501220006	hp98@m3.dion.ne.jp	A£²q	2/3
R301501220008	mont_saint_michel_aoi@ybb.ne.jp	 Ø¢	2/3
R301501230005	happylife12300@yahoo.co.jp	iąV³Øč	2/3
R301501240009	hamachi-takako@ezweb.ne.jp	ycMq	2/3
R301501240010	maemae@mwd.biglobe.ne.jp	OcRq	2/3
R301501220009	tatsuhide0515@hotmail.co.jp	ąéCG	2/3
R301501240008	miwa_kizuna-0412_kazuki@softbank.ne.jp	¼{üa	2/3
R301501250003	satoshikobata@outlook.jp	¬©«	2/3
R301501250010	office-m@kdr.biglobe.ne.jp	īübq	2/3
R301501250014	aika0711@adagio.ocn.ne.jp	kŻ¤	2/3
